Untitled
…
Warning: One or more parsing issues, call `problems()` on your data frame for details,
e.g.:
  dat <- vroom(...)
  problems(dat)

aus_wine_ts <- aus_wine |>
    pivot_longer(cols = -Month, names_to = 'Varietal', values_to = 'Sales') |> 
    as_tsibble(index = Month, key = Varietal)
aus_wine_ts

# A tsibble: 1,080 x 3 [1M]
# Key:       Varietal [6]
      Month Varietal  Sales
      <mth> <chr>     <dbl>
 1 1980 Jan Dry white  1954
 2 1980 Feb Dry white  2302
 3 1980 Mar Dry white  3054
 4 1980 Apr Dry white  2414
 5 1980 May Dry white  2226
 6 1980 Jun Dry white  2725
 7 1980 Jul Dry white  2589
 8 1980 Aug Dry white  3470
 9 1980 Sep Dry white  2400
10 1980 Oct Dry white  3180
# ℹ 1,070 more rows
…
